Initialised
use tailset:false
i,time,fitness,loopCount
1,8331,256992.0,132280367
2,7526,264022.0,133210292
3,9331,255820.0,137491093
4,9415,258560.0,129475749
5,7663,261272.0,137020773
6,9267,260774.0,132953312
7,7250,262268.0,134335837
8,9158,251154.0,132173118
9,7741,253990.0,131365714
10,9094,256346.0,131701848
11,9514,261048.0,138486301
12,7510,259360.0,134991082
13,9682,254272.0,131383529
14,8781,257530.0,140326198
15,7378,256470.0,130564117
16,9662,262502.0,136570017
17,8316,257806.0,130254601
18,7262,253636.0,129300020
19,8797,252882.0,137061374
20,9446,260090.0,134594778
21,8835,258352.0,131907380
22,7808,255520.0,131426828
23,7368,257230.0,130533524
24,7286,258264.0,124869685
25,6990,251462.0,123778500
26,7805,257094.0,140586419
27,7768,261764.0,139492865
28,8453,265004.0,149316905
29,8249,258066.0,138023805
30,8151,254302.0,126687761
31,7911,260562.0,147255447
32,7721,258950.0,135189933
33,7603,258544.0,127854339
34,7411,258626.0,134547009
35,7974,262948.0,133533937
36,7727,255102.0,130728925
37,8012,263844.0,143461424
38,7685,259908.0,137556929
39,7568,264700.0,143709412
40,6873,256010.0,130922341
41,7231,259194.0,139052708
42,6518,253216.0,120701968
43,6892,255666.0,135401497
44,7495,259778.0,137580864
45,7083,258358.0,130051311
46,7597,256814.0,130594900
47,6414,253638.0,124833372
48,7232,256832.0,137945086
49,7384,258500.0,137548693
50,7464,263092.0,145224059
51,7559,265606.0,130576088
52,7538,254232.0,132605684
53,7318,251224.0,131845218
54,6991,262464.0,134726323
55,6906,257492.0,132368802
56,7573,259320.0,132425500
57,7508,259370.0,125661712
58,8005,262058.0,142781906
59,7768,258106.0,133597038
60,7960,260772.0,139917972
61,7191,261454.0,138009788
62,6768,257738.0,134036464
63,7391,256538.0,138863455
64,7248,262316.0,136231995
65,7169,258562.0,140411158
66,7236,261480.0,130143977
67,6988,259204.0,130707591
68,7152,262714.0,141371123
69,6484,257460.0,131102718
70,6951,265068.0,134944394
71,6852,262834.0,141704575
72,6615,253544.0,125647405
73,6767,265066.0,140408983
74,7315,264858.0,137450840
75,6775,254280.0,137301994
76,7206,262696.0,138555291
77,6839,254278.0,127477421
78,6731,255408.0,133620238
79,7359,253564.0,142758872
80,7365,255354.0,134220461
81,7085,256260.0,136246416
82,6746,256500.0,125801003
83,6816,258892.0,133990769
84,7149,256986.0,144946033
85,8138,262026.0,146421260
86,7424,259264.0,140802162
87,6496,257274.0,131711118
88,7205,256896.0,130371202
89,6685,257910.0,131933454
90,6983,263696.0,136562167
91,7313,261764.0,144247074
92,7034,256718.0,138115832
93,7135,256696.0,140402281
94,6990,252128.0,137260962
95,7228,261926.0,144947847
96,6955,261152.0,133374585
97,7180,256750.0,134367581
98,6979,258124.0,139145783
99,7419,264616.0,128253596
100,7107,256934.0,134062853
101,7115,257394.0,134054455
102,6860,258822.0,134149078
103,6663,257974.0,129969352
104,7252,263444.0,141215504
105,7070,258322.0,139493324
106,7012,253696.0,134191446
107,6855,260870.0,135199294
108,6698,259004.0,122014594
109,7962,262048.0,144340274
110,7323,259794.0,133076050
111,7374,256648.0,141243849
112,7068,261360.0,130265701
113,7058,256768.0,128397786
114,7849,266356.0,147506780
115,6427,252604.0,125225309
116,7413,259900.0,132051854
117,8023,263808.0,139291899
118,9049,268304.0,142400251
119,7628,258196.0,130875855
120,7685,256074.0,139309094
121,7255,260902.0,128264143
122,6434,256790.0,123538429
123,7588,259234.0,139278855
124,7795,264896.0,137379075
125,8877,266258.0,146040792
126,8317,262486.0,148092059
127,6461,255746.0,121141075
128,6724,260398.0,135295213
129,6650,255518.0,130756047
130,7072,258928.0,136045692
131,7392,254626.0,131370770
132,8154,263998.0,137345611
133,7904,257394.0,141517226
134,7865,253694.0,131375465
135,7739,259664.0,131617963
136,7579,270670.0,135994758
137,7779,258266.0,129398968
138,7359,261708.0,138747029
139,7106,271564.0,128947965
140,7752,256242.0,133059586
141,7725,260562.0,129362727
142,7703,257538.0,130745668
143,7214,261620.0,127479035
144,7662,257964.0,133478794
145,6819,268308.0,129960545
146,7828,257898.0,137736763
147,7876,256270.0,133878877
148,7353,256562.0,130950270
149,8481,259862.0,142244280
150,7315,254722.0,131144236
151,6911,259802.0,137214426
152,7245,257698.0,131572912
153,7207,253854.0,133972928
154,7169,252762.0,130413305
155,7917,258436.0,146391135
156,7016,251056.0,121562746
157,7219,263432.0,137723658
158,7214,262002.0,133919448
159,6903,258536.0,136088754
160,7117,263676.0,140229079
161,7291,258862.0,146406447
162,7467,256116.0,139849942
163,7491,257234.0,139304231
164,7138,260028.0,136959642
165,7097,260720.0,138397794
166,7169,262958.0,140577104
167,7451,263504.0,141909684
168,7442,259200.0,140678196
169,7810,256584.0,138404241
170,7998,264224.0,137055668
171,6584,258700.0,123768421
172,7225,253230.0,131719412
173,7680,257558.0,133924879
174,7812,260716.0,147188521
175,7538,259180.0,136933906
176,7347,263694.0,137412384
177,7021,253736.0,128017112
178,7335,262078.0,134562432
179,7391,257488.0,130128291
180,8241,256018.0,142105854
181,7437,260136.0,135376993
182,7419,253184.0,128863869
183,6665,258150.0,126578606
184,7057,257108.0,134621978
185,7062,255068.0,120763795
186,7183,264348.0,142619229
187,7829,254502.0,138693531
188,7121,259292.0,135504286
189,6677,258368.0,132830476
190,7693,260880.0,136859276
191,7481,262954.0,145297654
192,7051,268598.0,147052280
193,7286,257094.0,134301341
194,6921,264194.0,129947248
195,6975,256120.0,125607561
196,7141,256396.0,135690875
197,6906,257738.0,129139273
198,7394,255034.0,137020753
199,7836,262098.0,130559885
200,7971,260050.0,138333110
201,7378,258956.0,135129906
202,7030,259572.0,135389338
203,6930,264154.0,130799801
204,7071,255546.0,140170926
205,7838,255946.0,142109808
206,7257,257992.0,133433371
207,7325,260102.0,130450173
208,7161,254646.0,136618291
209,7171,265868.0,134725910
210,6764,258676.0,126503365
211,7360,258412.0,139024470
212,7033,254592.0,131796327
213,7155,255540.0,131725838
214,7169,253670.0,127724797
215,7953,262300.0,139665741
216,8401,262878.0,142935715
217,7487,260862.0,133418336
218,7917,257190.0,135449779
219,7936,261332.0,142258262
220,6969,260442.0,131472975
221,7661,259758.0,137571117
222,6783,260000.0,137180999
223,7389,258084.0,133315827
224,7447,255820.0,130980952
225,7035,258654.0,138673785
226,6411,257042.0,120030103
227,6942,262364.0,132143123
228,7028,259860.0,134693786
229,6136,256440.0,123006606
230,7169,259262.0,134174589
231,6546,257400.0,129928668
232,6842,254628.0,135206476
233,6944,260636.0,136079838
234,6918,257248.0,138448981
235,6888,252226.0,128632404
236,6603,259496.0,125710652
237,6631,255290.0,130790797
238,6325,259214.0,127552255
239,6593,255284.0,133313976
240,6105,263106.0,127271763
241,6542,254918.0,130232407
242,6772,257550.0,138352567
243,6338,260330.0,129935339
244,7196,257320.0,138194121
245,6496,255712.0,126745244
246,6885,254364.0,134574541
247,6577,255248.0,130567359
248,6885,255204.0,132890466
249,6921,259154.0,144358894
250,6856,257084.0,128119174
251,6971,257634.0,134764300
252,6233,257094.0,129635601
253,6523,255826.0,133374134
254,6735,259190.0,134832030
255,6622,254162.0,139006624
256,6610,259796.0,138579355
257,6938,250214.0,125700292
258,7066,257424.0,139240984
259,6973,257482.0,135668478
260,7676,258148.0,141746410
261,6879,252060.0,138830905
262,7090,255718.0,130152339
263,6577,266624.0,132834575
264,6300,260004.0,132176703
265,7230,256502.0,137901665
266,6311,254708.0,129443248
267,7249,262318.0,148583132
268,6664,268596.0,137825451
269,6780,256952.0,138330763
270,7027,258108.0,133709786
271,6874,260584.0,143871365
272,6843,257158.0,129970745
273,7139,266562.0,138327044
274,6550,264134.0,124702001
275,6472,261036.0,129185973
276,6907,261532.0,135115471
277,6309,260944.0,127967701
278,6427,254140.0,128144238
279,6849,254304.0,125861368
280,6862,259586.0,134722938
281,7582,256892.0,144663017
282,6575,255140.0,141022387
283,6990,267066.0,143613716
284,6655,257684.0,134019489
285,6458,253136.0,135099173
286,6563,260370.0,131054459
287,6768,255242.0,131789918
288,7036,261896.0,145595307
289,6435,257624.0,131686682
290,7000,264024.0,144867113
291,6309,258552.0,132450502
292,6500,254368.0,134587263
293,6881,255538.0,135369797
294,7046,261758.0,138644400
295,6646,256268.0,129293564
296,6929,264668.0,138985457
297,7459,275626.0,147227340
298,6652,256014.0,132731977
299,6883,266534.0,141509208
300,6563,260216.0,138578054
301,6853,257878.0,137348108
302,6126,252314.0,122547586
303,6309,254692.0,130008222
304,7280,268444.0,142558561
305,6412,256990.0,129897033
306,6405,256726.0,133138407
307,6914,265462.0,135857879
308,7143,261614.0,134377704
309,6560,267340.0,140286194
310,6440,257184.0,127898241
311,6832,257472.0,139793053
312,6911,257006.0,136849099
313,6766,257708.0,135514252
314,6571,259748.0,136445688
315,6464,260310.0,134469867
316,6743,257536.0,134765307
317,6467,259794.0,127309345
318,6357,258776.0,128726613
319,6759,258032.0,133599368
320,6705,254374.0,131121712
321,7321,254880.0,142357659
322,6456,256788.0,131414762
323,6542,255380.0,133891332
324,6492,258700.0,137968709
325,7075,263684.0,142880037
326,6860,258338.0,136652218
327,7077,254174.0,134099714
328,6810,264020.0,133757129
329,6455,258266.0,132327657
330,6453,260748.0,135196914
331,7255,256764.0,130181273
332,6449,255716.0,127731544
333,6546,254504.0,132557309
334,6941,260274.0,136213905
335,6504,254952.0,131816798
336,6665,268520.0,137610442
337,6646,254160.0,132492595
338,7371,253144.0,123799424
339,7391,258088.0,133357536
340,6500,258362.0,135450038
341,6979,258600.0,143517270
342,7175,257804.0,124073673
343,6644,263372.0,132222711
344,6092,254764.0,122280185
345,6811,256176.0,131983652
346,6703,261070.0,137691468
347,7037,261436.0,145681344
348,6803,265502.0,130257764
349,6304,254974.0,122706584
350,6683,261074.0,128305064
351,6872,259566.0,133517317
352,6696,264238.0,132312886
353,6400,261790.0,133157727
354,6609,262806.0,117502268
355,6600,255832.0,134423621
356,7331,261312.0,138772524
357,6508,254462.0,129686861
358,6633,255102.0,131336821
359,7368,254424.0,143721505
360,6919,262090.0,139157566
361,6339,260386.0,128528124
362,7163,262428.0,137651765
363,6547,261678.0,139517472
364,6436,255732.0,133127647
365,7243,261738.0,142565571
366,6649,263602.0,130872988
367,6509,256566.0,128398083
368,6879,261772.0,136155594
369,6241,266572.0,128593877
370,6229,253632.0,121308917
371,7384,261758.0,146461785
372,6542,255322.0,136632285
373,6858,256708.0,138745680
374,6905,260690.0,136923907
375,6203,256268.0,134382361
376,6455,263848.0,140455243
377,6475,258804.0,134571636
378,6935,261974.0,142187640
379,6797,255062.0,132385314
380,6246,254594.0,127430745
381,6800,260118.0,132459163
382,6452,255386.0,128476991
383,6991,256848.0,141364431
384,7202,256352.0,144679725
385,6640,260666.0,133018670
386,7025,262374.0,134609019
387,6137,254868.0,127948588
388,6515,264234.0,134504095
389,6816,255814.0,128151638
390,6524,268162.0,134188313
391,6767,257194.0,135395922
392,6972,256654.0,137801900
393,6928,259838.0,137981068
394,6662,259432.0,133630308
395,6773,252364.0,139479058
396,7371,262090.0,140359937
397,6894,260048.0,141874144
398,6602,261920.0,135387303
399,6468,257080.0,134714364
400,6385,258156.0,129480263
401,6755,257388.0,132935764
402,6171,258646.0,124571234
403,6627,256316.0,130983537
404,6741,264174.0,128697825
405,6601,257558.0,141473247
406,6754,261458.0,139090216
407,6278,253696.0,128069887
408,6129,264390.0,130069634
409,6345,253244.0,131876351
410,6674,252280.0,127794778
411,7156,260260.0,141622930
412,6258,253544.0,127593879
413,7141,258322.0,135083216
414,6694,260406.0,134485107
415,6346,258608.0,125518821
416,6394,255516.0,127858728
417,6633,261532.0,131635838
418,6250,258386.0,117645732
419,6372,258866.0,136293029
420,6197,259970.0,135731206
421,7072,256750.0,135773760
422,6999,255848.0,135427145
423,6230,258530.0,130278578
424,6112,262814.0,122747198
425,6970,258968.0,138244046
426,6468,256734.0,133945883
427,6575,254004.0,131539217
428,6329,248714.0,120259534
429,6276,255408.0,126696322
430,6836,261950.0,142382916
431,6615,261690.0,136691325
432,7076,259958.0,132954201
433,6471,255976.0,120116865
434,6500,254348.0,133249749
435,6624,256322.0,127820436
436,6738,264900.0,139915372
437,6493,255902.0,129891972
438,6566,257134.0,133644640
439,6475,254344.0,123911382
440,6882,260824.0,138232121
441,6249,261758.0,129319591
442,6901,251570.0,134540150
443,6999,258216.0,137551001
444,6971,257292.0,141926079
445,6701,258538.0,140695419
446,6929,259410.0,129506827
447,7144,261082.0,144655189
448,6266,254282.0,136769918
449,6667,264740.0,131212931
450,6244,256764.0,127458559
451,6354,256366.0,121875633
452,6039,256516.0,122316752
453,7148,258376.0,136383368
454,6836,254682.0,135222558
455,6643,260736.0,134113738
456,6207,253504.0,132374761
457,6682,257500.0,129367891
458,6827,254040.0,137929309
459,6317,257854.0,132369843
460,7559,261994.0,140154137
461,6598,256986.0,131923233
462,6647,259688.0,135170397
463,7222,260474.0,136088937
464,6597,260434.0,134158044
465,6632,264610.0,141282846
466,7324,272808.0,148437935
467,6680,262158.0,137277682
468,6482,254042.0,133736558
469,6373,256134.0,131534313
470,6878,267426.0,142824905
471,6513,260212.0,136597773
472,6571,259302.0,128042089
473,6882,262980.0,144173806
474,6920,266906.0,132507965
475,6641,259728.0,131984452
476,7037,256818.0,126485859
477,6741,257558.0,131017741
478,6850,260338.0,138496171
479,6594,256844.0,131798754
480,6392,256840.0,138562216
481,6845,259380.0,138758378
482,6337,259818.0,126664213
483,6754,258418.0,130813291
484,6110,256086.0,125563868
485,6291,255740.0,127166557
486,6955,256334.0,137420859
487,6702,262512.0,134039797
488,7175,269462.0,143178780
489,6746,265178.0,142792386
490,6787,261814.0,137570164
491,6182,260254.0,121694876
492,6582,265906.0,137819551
493,6762,256074.0,141815106
494,6841,264874.0,134559357
495,6971,264362.0,135424096
496,6376,259930.0,130631591
497,6985,259116.0,133103768
498,6834,263698.0,140092057
499,6824,253994.0,130254958
500,6559,254364.0,137150357
501,6699,267586.0,138251530
502,6484,255532.0,128233747
503,6517,257382.0,135197720
504,6631,259838.0,135099454
505,6486,256838.0,131026756
506,6376,264086.0,133842395
507,6537,263764.0,139748436
508,7064,255922.0,136427387
509,6959,258250.0,144806992
510,6094,257378.0,125301584
511,6753,257574.0,135032051
512,6530,256458.0,129582137
513,6395,263338.0,128783501
514,6539,254634.0,131512716
515,6191,260638.0,126849723
516,6647,260946.0,131691089
517,6500,257120.0,125723233
518,6626,258010.0,135729398
519,7295,256350.0,142141272
520,6893,265778.0,143244976
521,6734,263846.0,141696578
522,7251,273908.0,140895199
523,6352,255280.0,128973715
524,6896,253660.0,136796395
525,6456,252892.0,136211998
526,6657,253556.0,129384585
527,6451,260492.0,120514856
528,6563,253330.0,137051924
529,6773,259392.0,135963972
530,6806,255564.0,139895605
531,7018,257776.0,136690579
532,6489,254918.0,135561397
533,6723,268558.0,133439192
534,7090,258908.0,149573999
535,6457,264792.0,134402274
536,7128,272538.0,142522638
537,7044,259626.0,131080207
538,7033,259694.0,139951370
539,6647,266424.0,137379972
540,7059,254530.0,143106605
541,6284,256808.0,129257332
542,7292,259910.0,131094412
543,6924,257574.0,137252800
544,7124,256046.0,143737483
545,6393,255296.0,127601405
546,6696,259694.0,141208468
547,6306,263512.0,131815816
548,6881,263990.0,141941068
549,6328,255968.0,127451984
550,6543,255350.0,134670657
551,6489,260512.0,131670114
552,6648,258678.0,137911667
553,6574,258392.0,130129967
554,7518,270788.0,145047374
555,6299,255312.0,129327483
556,6679,258198.0,136904690
557,7106,255780.0,125497659
558,6600,262108.0,132514118
559,6878,258452.0,137881281
560,6936,258458.0,132694888
561,6826,256038.0,137029736
562,7048,258516.0,142074530
563,6769,257556.0,135432980
564,6816,267134.0,136816778
565,6709,261188.0,134718222
566,6954,253762.0,135547396
567,7049,254120.0,139927392
568,6606,258486.0,136143960
569,7609,259042.0,143268010
570,6649,260006.0,134166670
571,6609,262404.0,136974540
572,6950,269006.0,138108865
573,6835,262150.0,142421488
574,7059,262090.0,139959895
575,7369,255522.0,143186093
576,6729,257022.0,137984897
577,6455,266344.0,129545887
578,6817,256140.0,132543588
579,6402,258520.0,124996484
580,6681,258772.0,130842696
581,6876,256778.0,136333763
582,6708,254684.0,132082015
583,6732,258524.0,141578666
584,7503,255100.0,138730049
585,6551,260596.0,129044620
586,6821,252592.0,133449013
587,6193,255248.0,131525193
588,6495,254978.0,132007285
589,7027,253344.0,140139677
590,7028,260756.0,145040381
591,6894,266866.0,130082404
592,6931,250340.0,134656596
593,6504,259264.0,131672210
594,6774,256076.0,133581013
595,6822,264424.0,141505665
596,7038,256636.0,137828944
597,6989,260458.0,140972486
598,6823,260560.0,130441564
599,6684,257306.0,135261367
600,6670,255496.0,127397095
601,6653,261066.0,136061164
602,6686,256680.0,140685053
603,6977,254930.0,140000617
604,6549,257686.0,139807274
605,6835,254252.0,137534539
606,7297,263718.0,144087959
607,6720,257008.0,130914621
608,7084,270324.0,132373088
609,6919,256966.0,135964111
610,6722,255740.0,129474920
611,6920,261886.0,127944692
612,7059,262716.0,138783814
613,6799,260638.0,134873876
614,7068,261872.0,132994632
615,6757,258386.0,128248145
616,6799,255318.0,145732102
617,6211,260770.0,131060183
618,6353,259612.0,131321195
619,6721,256536.0,128651206
620,7159,256516.0,130529347
621,6794,255322.0,133320154
622,6315,254368.0,129797097
623,7528,258240.0,133949983
624,6642,255066.0,130314764
625,6964,255178.0,138501057
626,6744,259162.0,139406897
627,6737,260042.0,137292778
628,7678,258912.0,147023775
629,6795,253166.0,138212002
630,6509,262692.0,133062526
631,6280,254884.0,137146165
632,6462,257854.0,134381611
633,6612,262748.0,133358436
634,5881,254470.0,140384849
635,5600,256790.0,134417618
636,5591,260218.0,133424530
637,5496,259092.0,140654315
638,5944,253806.0,135969217
639,6001,255342.0,138510144
640,5449,254816.0,130873948
641,5574,255584.0,128259270
642,5842,267272.0,145159123
643,5275,263556.0,128804204
644,5258,259838.0,122928737
645,5465,267010.0,133207817
646,5343,259206.0,129358721
647,5519,261930.0,139015491
648,5475,255804.0,133657514
649,5637,256224.0,138180470
650,5938,258406.0,140476180
651,5406,260420.0,132397452
652,5626,262112.0,134559630
653,5618,261930.0,137604116
654,6466,260258.0,150077627
655,6213,265570.0,144859016
656,5721,258218.0,135975507
657,5248,253158.0,125525524
658,5547,256910.0,135607166
659,5624,254624.0,132445253
660,6267,259870.0,142300233
661,5434,255950.0,131923393
662,5777,260384.0,126818712
663,5868,264252.0,134049060
664,5019,253346.0,120458634
665,6063,270882.0,141526244
666,5489,260998.0,135136483
667,6094,256756.0,143243088
668,5315,251078.0,126693482
669,5399,259632.0,131456305
670,5214,262854.0,131479517
671,5895,260996.0,138585237
672,5359,256920.0,126372526
673,5903,257716.0,136116069
674,5954,256190.0,139465234
675,5426,256208.0,129554518
676,5914,264458.0,144788681
677,5397,264280.0,129155862
678,5456,260064.0,132313072
679,5757,252610.0,129044058
680,5891,252080.0,134517867
681,5666,259468.0,133905610
682,5867,257900.0,137446445
683,5387,256858.0,124383565
684,5816,264790.0,138952793
685,6136,260180.0,139202144
686,5906,261958.0,148741698
687,5595,254356.0,135688853
688,5633,257184.0,125172698
689,6065,256168.0,144938045
690,5649,255906.0,138265557
691,5622,262102.0,144119052
692,6271,266296.0,143014340
693,5709,255516.0,140821842
694,5778,260536.0,134668613
695,5671,259020.0,136044764
696,5019,258718.0,126655058
697,5674,257748.0,133745303
698,5715,259260.0,129754508
699,5473,255688.0,134004406
700,5299,260612.0,130422397
701,5686,256122.0,136992833
702,5436,251864.0,122668782
703,5903,257552.0,137519968
704,5940,260338.0,134497972
705,5672,265236.0,141766007
706,5409,258240.0,132759839
707,5480,254236.0,131047118
708,6027,272498.0,135837311
709,5350,257070.0,130274529
710,5136,260456.0,129442169
711,5213,253220.0,125542904
712,5190,256516.0,127723815
713,6148,265916.0,136885476
714,5937,260488.0,139124426
715,5971,262408.0,134912124
716,5789,257882.0,138399828
717,5239,261854.0,129346828
718,6224,257028.0,141807055
719,5872,262398.0,143703560
720,5538,260506.0,135359092
721,5365,255786.0,133318782
722,5376,262422.0,131592319
723,5759,259994.0,141124681
724,5739,256714.0,139151314
725,5814,257938.0,128121771
726,5575,259688.0,130413347
727,5956,259844.0,137431754
728,5942,261186.0,144475558
729,5437,262042.0,132121875
730,5930,257322.0,138868280
731,5545,261040.0,139634541
732,5587,258614.0,133173500
733,5999,262564.0,145080175
734,5643,259510.0,135088229
735,5562,259892.0,136073463
736,5681,263460.0,136764939
737,5735,261192.0,134582703
738,6039,254942.0,138977911
739,5559,253786.0,128614730
740,5823,257490.0,141237109
741,5166,257080.0,125741287
742,5418,258990.0,132451293
743,5869,260960.0,135776521
744,5344,254928.0,125585305
745,5579,257870.0,134959701
746,5719,256304.0,134039536
747,5997,255834.0,140140099
748,5748,254834.0,135727783
749,5155,259002.0,128689164
750,5545,255546.0,128729255
751,5994,265948.0,138808037
752,5357,256436.0,126466982
753,5815,258504.0,138318966
754,5491,261394.0,133320249
755,5344,259000.0,135995050
756,5789,259672.0,134163416
757,5544,254826.0,135316348
758,5316,260110.0,129409684
759,5676,255256.0,137189008
760,5337,257574.0,131996606
761,6068,259672.0,141510115
762,5760,254574.0,131708132
763,5724,260542.0,136627515
764,5712,254078.0,131244045
765,5992,263014.0,132380138
766,6086,266840.0,131696824
767,5373,260250.0,135429051
768,6010,259070.0,133838308
769,5592,256184.0,135377963
770,5474,260344.0,132890091
771,5892,254504.0,142109515
772,5316,256770.0,135148734
773,6045,268276.0,141318301
774,5975,256470.0,131713473
775,5305,255284.0,135035718
776,6279,253818.0,140350133
777,5714,254402.0,131187337
778,5452,260968.0,130417734
779,5335,255466.0,128398101
780,5301,260954.0,134754496
781,5788,275356.0,137384586
782,5514,255686.0,135484650
783,5760,260014.0,132502166
784,5527,258924.0,134238174
785,5749,260396.0,135471620
786,5709,264600.0,134112085
787,5659,260572.0,130368162
788,5500,263490.0,137665554
789,5347,257154.0,129955535
790,5615,257116.0,136880390
791,5605,256944.0,136809681
792,5459,262764.0,127440978
793,5556,260248.0,134230114
794,5407,258394.0,136562023
795,5657,255174.0,124173009
796,5204,262054.0,127094077
797,5683,258742.0,140102866
798,5957,260928.0,146327222
799,5584,259750.0,136174804
800,6097,268466.0,148204494
801,5690,254280.0,132894851
802,5631,259200.0,142140882
803,5376,258404.0,126815762
804,5402,260486.0,135400541
805,5518,258078.0,123299821
806,5807,259344.0,140480044
807,5844,259920.0,142257334
808,5480,259896.0,135552666
809,5320,253378.0,122880935
810,5993,260048.0,141198303
811,5041,258994.0,126255690
812,5520,258196.0,129662762
813,5378,258636.0,139361205
814,5734,256982.0,138929999
815,5830,253470.0,142378416
816,5867,259936.0,138412607
817,5199,256422.0,126993648
818,5476,257366.0,136296133
819,6204,255474.0,137881209
820,5579,255952.0,132453677
821,4977,259982.0,125423019
822,5676,260542.0,140100166
823,5521,256862.0,132985869
824,6103,257328.0,139770937
825,5485,262618.0,134288149
826,5919,257048.0,141276007
827,5975,260462.0,143752668
828,6313,259234.0,131057514
829,5505,260250.0,134234977
830,5429,257934.0,133896958
831,5521,253776.0,132535506
832,5748,262436.0,136035324
833,5256,258708.0,127499305
834,5875,264716.0,134848150
835,5611,264756.0,132218328
836,5600,255372.0,135327422
837,5277,259026.0,125161315
838,5468,258422.0,129513232
839,5419,252010.0,129622925
840,5737,257484.0,142715389
841,5052,263042.0,123639498
842,5542,261022.0,130884750
843,4967,255834.0,124544833
844,5874,255198.0,143928167
845,5419,257368.0,134347844
846,5574,260400.0,129651368
847,5322,262172.0,124033434
848,5538,259992.0,140028384
849,5690,256344.0,128417065
850,5530,252970.0,132370669
851,6267,268296.0,144600425
852,5379,254816.0,126373245
853,5827,258444.0,135604175
854,5395,256366.0,130653676
855,5971,256446.0,139783547
856,5712,260680.0,125642487
857,5541,255504.0,138329691
858,5481,268436.0,135163608
859,5642,257074.0,134624637
860,5851,261310.0,137716883
861,5997,253212.0,127118168
862,5432,261440.0,130027010
863,5750,258764.0,138245712
864,6012,254828.0,135682176
865,5485,257618.0,132843120
866,5949,259254.0,137911524
867,5874,263298.0,138939007
868,5448,261290.0,141025277
869,5826,256850.0,137590728
870,5501,259230.0,134421408
871,5556,257018.0,138661838
872,5469,254824.0,134786814
873,5956,256534.0,140624842
874,5390,262026.0,130216269
875,7191,257908.0,141939392
876,6046,256516.0,136702454
877,6463,274632.0,137445738
878,5945,257630.0,130327213
879,5598,250760.0,135123576
880,4892,251868.0,115454361
881,6170,258788.0,132488819
882,5775,257906.0,135900708
883,5204,258568.0,129548645
884,5921,255762.0,135684778
885,6192,263890.0,145677098
886,5925,264554.0,137105033
887,5548,255812.0,131378645
888,5593,257850.0,133299854
889,6148,262538.0,138779777
890,5943,260292.0,136218830
891,5507,257836.0,132419617
892,5377,260970.0,131442577
893,5231,259408.0,134030507
894,5289,260294.0,133420488
895,6176,257442.0,135368866
896,6188,258660.0,147182049
897,5137,258402.0,127897260
898,5912,263828.0,138101164
899,5990,254964.0,135523144
900,5383,259072.0,135309023
901,5521,263924.0,141667344
902,5853,254350.0,141327835
903,5577,252152.0,136027682
904,5698,258978.0,139837708
905,5292,256204.0,132163097
906,5578,255382.0,135412829
907,5558,251452.0,138781065
908,5403,256734.0,133911890
909,5758,260302.0,132537728
910,5499,264148.0,135693035
911,5789,265414.0,131858654
912,5837,256948.0,137786148
913,5282,258352.0,132383858
914,5522,258634.0,133637055
915,5796,257650.0,136751558
916,5225,255920.0,124989405
917,5722,265464.0,140000410
918,5682,262930.0,131515123
919,5933,253634.0,134824955
920,5084,263064.0,127587911
921,5148,253472.0,128937454
922,6069,261326.0,132966242
923,6250,263852.0,137805482
924,5371,258772.0,128168015
925,5440,257236.0,134131329
926,5635,262212.0,135990414
927,5300,256614.0,137280989
928,4976,256732.0,117836521
929,6167,259152.0,145172810
930,5604,262590.0,137295490
931,5811,257262.0,142087233
932,5313,258326.0,129259424
933,5843,257722.0,137275344
934,5443,255510.0,125645985
935,6109,261068.0,144448424
936,5560,261444.0,134954132
937,5535,254794.0,132685373
938,5514,259854.0,135273967
939,5919,263918.0,138750059
940,5299,253634.0,125751528
941,5485,257432.0,133004650
942,5684,254918.0,134203405
943,5266,259180.0,131091802
944,5694,262454.0,140175050
945,5711,255922.0,128871197
946,5515,267620.0,139401976
947,5752,264868.0,139729744
948,5562,254568.0,133202461
949,5650,261654.0,135709172
950,5937,255754.0,141372790
951,5808,261756.0,137119002
952,6247,261478.0,145876080
953,5675,252626.0,138540542
954,5688,260692.0,136686162
955,5754,258040.0,135205798
956,6416,253028.0,142347220
957,5758,270966.0,139641155
958,5345,258220.0,122993439
959,5772,254870.0,138829280
960,5741,253020.0,135976958
961,6056,262214.0,140540551
962,5848,259224.0,137381160
963,5287,256366.0,131163126
964,5719,254656.0,129665785
965,5590,264720.0,130214941
966,5958,261726.0,140829273
967,5708,256854.0,132722594
968,6082,260642.0,127180976
969,5902,259494.0,134249679
970,5589,257730.0,132557985
971,5725,256148.0,139053028
972,5669,253636.0,134375278
973,5104,259770.0,127213366
974,5715,259218.0,133127121
975,5890,261328.0,145081022
976,5237,257908.0,126259822
977,5734,253494.0,131608126
978,6274,255810.0,142028863
979,5437,255136.0,126687839
980,6419,255294.0,151136981
981,5488,252694.0,131841267
982,5611,253924.0,136053685
983,6042,255852.0,135136495
984,5695,251786.0,126666612
985,5471,264938.0,137653339
986,5898,255874.0,138643195
987,5733,254478.0,134746995
988,5910,257078.0,136723779
989,5278,253118.0,128102099
990,6108,256590.0,146142662
991,5439,256496.0,134314387
992,5303,262752.0,139959984
993,5696,262046.0,132899452
994,6998,275134.0,155818381
995,6017,267716.0,138271419
996,5755,259066.0,137288502
997,5360,256498.0,125818206
998,5547,256892.0,135931656
999,5560,259186.0,133931804
1000,5971,264572.0,131211873
All done.

